1 10 20
100 200 125
201 210 89
900 1000 174
68 59852 340
59852 68 340
11359 25708 282
25708 11359 282
78648 96625 338
96625 78648 338
906 32662 308
32662 906 308
42 25 112
25 42 112
1 1 1
32 32 6
99999 1 351
1 99999 351
59644 81811 351
81811 82297 289
82297 33318 351
33318 66271 340
66271 53911 335
53911 11602 340
11602 22242 279
22242 22078 207
22078 74724 340
74724 54357 335
54357 96054 351
96054 44963 351
44963 13459 324
13459 47362 324
47362 9727 324
9727 24563 282
24563 78552 351
78552 69505 351
69505 75900 325
75900 59644 335
658 980 179
980 829 179
829 183 171
183 491 144
491 73 144
73 624 144
624 510 137
510 83 144
83 570 144
570 91 144
91 936 179
936 875 148
875 260 179
260 749 171
749 642 171
642 351 142
351 489 142
489 71 144
71 79 116
79 658 145
37 28 107
28 9 112
9 82 116
82 66 116
66 12 113
12 92 116
92 81 111
81 49 116
49 69 113
69 70 15
70 12 113
12 20 21
20 32 112
32 34 27
34 58 113
58 91 116
91 79 111
79 37 116
37 11 112
11 37 112
23 1 21
1 73 116
73 51 116
51 97 119
97 100 119
100 30 119
30 83 116
83 83 111
83 32 116
32 18 112
18 37 112
37 48 110
48 39 110
39 30 107
30 73 116
73 67 116
67 80 116
80 56 116
56 33 113
33 23 112
598750 769289 509
769289 421777 509
421777 315066 449
315066 114794 443
114794 344678 443
344678 236108 407
236108 598750 470
1 999999 525
