.....................
----------------------------------------------------------------------
Ran 21 tests in 0.294s

OK
Name             Stmts   Miss Branch BrPart  Cover   Missing
------------------------------------------------------------
Collatz.py          48      0     16      0   100%
TestCollatz.py      89      0      0      0   100%
------------------------------------------------------------
TOTAL              137      0     16      0   100%
