1 10 20
100 200 125
201 210 89
900 1000 174
1 1 1
10 1 20
999999 999999 259
56068 656631 509
656149 939719 525
710029 877219 525
427801 494539 444
281530 978180 525
22299 892315 525
957618 966481 414
119018 948159 525
727888 764398 424
375650 961631 525
537917 677045 509
131767 714955 509
782487 842985 525
384412 631013 509
433384 780863 509
110247 479117 449
94036 862216 525
37348 290998 443
384358 840933 525
762002 948105 525
839212 899737 445
841438 932465 476
496091 756902 509
226654 377772 443
80838 357087 443
964820 966099 321
536548 800641 509
857896 950722 507
493252 891854 525
744253 999056 525
887554 938233 476
524783 809225 509
396122 396751 330
705117 988239 525
191383 917525 525
555779 675132 509
470484 538082 470
905303 940836 507
25834 117484 354
409592 891337 525
280571 711474 509
360877 725327 509
107241 168235 383
238582 701587 509
522299 749430 509
904736 942664 507
255547 759288 509
896142 998851 507
130844 311576 443
260253 517900 470
694036 737254 504
505460 811035 509
839643 919976 476
140289 953212 525
412604 582006 470
557847 917965 525
917139 999828 507
80966 291067 443
670946 796307 504
181412 869046 525
128199 662490 509
722156 820747 468
428903 588028 470
828187 888018 525
357115 827376 509
599289 838419 525
103586 160882 383
533143 944926 525
247501 433672 449
630795 696547 442
339409 757385 509
559373 752540 509
623905 993715 525
935092 976157 507
969542 988356 458
939604 999892 458
606265 962271 525
492973 559276 470
578580 643825 509
842492 992555 507
176100 560157 470
735032 837819 525
10151 864226 525
796616 828107 450
457004 904055 525
376487 591336 470
136156 782127 509
460775 467911 444
538192 763200 509
971485 991188 427
615970 781071 509
809462 903726 525
581163 891902 525
890475 974397 507
770132 864391 525
362024 928426 525
656124 868632 525
704814 813473 468
757033 931818 525
863677 986815 507
