1 10 20
100 200 125
201 210 89
900 1000 174
1 1 1
1 999999 525
594499 240655 470
328371 386843 441
766053 160164 509
90706 643904 509
308234 182574 443
286034 58728 443
142712 443314 449
954965 569789 525
859128 713982 525
31309 825832 509
350895 543391 470
132580 580683 470
884710 79541 525
458221 293633 449
541142 837192 509
866111 528948 525
826797 697096 504
381849 722814 509
700764 818948 504
61053 547324 470
360234 3282 443
104944 448493 449
337407 721982 509
803930 534790 509
648705 622450 509
325888 335266 353
19388 301969 443
19062 542334 470
693810 135381 509
535944 94603 470
841316 812845 525
108291 882137 525
646933 572443 509
700252 37195 509
171455 484698 449
998943 448486 525
769301 87439 509
394867 770638 509
639683 461832 509
400258 186527 443
590437 949659 525
499375 350413 449
121581 61335 354
650930 327741 509
545629 508730 470
365686 229918 443
836592 334997 509
138159 315555 443
975984 225739 525
215041 617708 470
575260 326300 470
493844 80686 449
971432 612968 525
357559 989660 525
940722 946756 383
770791 403981 509
675184 465608 509
781782 11798 509
796697 524025 509
429359 958239 525
76193 778490 509
636884 661833 429
801623 656900 504
865549 950973 507
516927 140786 470
101586 771439 509
290118 224137 443
994737 969046 458
875857 156212 525
776581 673970 504
348124 481945 449
618916 393330 470
277501 360996 441
507371 574167 470
51707 327299 443
947454 531698 525
87923 62145 351
705483 367125 509
981598 282541 525
119190 47368 354
286137 16156 443
201499 732202 509
671810 243722 509
208579 890733 525
955523 925583 507
146719 580587 470
36417 614560 470
171731 394849 443
914285 61823 525
901451 2906 525
43700 188415 383
522244 686285 509
135956 520011 470
50735 249659 443
724908 541754 509
17540 165278 383
611297 496732 470
531464 965091 525
919111 762633 525
493392 938436 525
258122 498335 449
121900 624522 470
355495 31059 443
205124 82286 383
777661 748523 468
697725 357467 509
936173 692974 525
178702 429408 449
9449 572740 470
829743 698323 504
507479 375607 449
870543 93250 525
202673 285941 443
737920 327855 509
909512 155145 525
467402 50878 449
499108 269782 449
473451 385433 449
330690 812564 509
60667 555393 470
246419 59511 443
557864 689678 509
84895 767677 509
510753 226948 449
380009 541956 470
871619 104472 525
32673 875234 525
900642 949452 507
22105 848007 525
671296 622282 509
615573 698080 509
606485 214470 470
709844 327804 509
183930 949441 525
802000 111315 509
682399 618072 509
246382 949017 525
679407 31854 509
64503 710136 509
555237 858984 525
704454 151100 509
57715 788035 509
674954 432060 509
614674 833549 509
184272 25708 383
479457 871554 525
487221 421049 444
154621 623636 470
367409 256022 441
